%YAML 1.1
%TAG !u! tag:unity3d.com,2011:
--- !u!1 &8410538930247542584
GameObject:
  m_ObjectHideFlags: 0
  m_CorrespondingSourceObject: {fileID: 0}
  m_PrefabInstance: {fileID: 0}
  m_PrefabAsset: {fileID: 0}
  serializedVersion: 6
  m_Component:
  - component: {fileID: 5960475049921019736}
  - component: {fileID: 4408558626660790388}
  - component: {fileID: 2195769630073972296}
  - component: {fileID: 6150616210929827372}
  - component: {fileID: 5243866080631161124}
  m_Layer: 0
  m_Name: Fence
  m_TagString: Untagged
  m_Icon: {fileID: 0}
  m_NavMeshLayer: 0
  m_StaticEditorFlags: 0
  m_IsActive: 1
--- !u!4 &5960475049921019736
Transform:
  m_ObjectHideFlags: 0
  m_CorrespondingSourceObject: {fileID: 0}
  m_PrefabInstance: {fileID: 0}
  m_PrefabAsset: {fileID: 0}
  m_GameObject: {fileID: 8410538930247542584}
  m_LocalRotation: {x: -0, y: -0, z: -0, w: 1}
  m_LocalPosition: {x: -0.6, y: 0.6, z: 0.6}
  m_LocalScale: {x: 1, y: 1, z: 1}
  m_Children: []
  m_Father: {fileID: 0}
  m_RootOrder: 0
  m_LocalEulerAnglesHint: {x: 0, y: 0, z: 0}
--- !u!114 &4408558626660790388
MonoBehaviour:
  m_ObjectHideFlags: 0
  m_CorrespondingSourceObject: {fileID: 0}
  m_PrefabInstance: {fileID: 0}
  m_PrefabAsset: {fileID: 0}
  m_GameObject: {fileID: 8410538930247542584}
  m_Enabled: 1
  m_EditorHideFlags: 0
  m_Script: {fileID: 11500000, guid: 8233d90336aea43098adf6dbabd606a2, type: 3}
  m_Name: 
  m_EditorClassIdentifier: 
  m_MeshFormatVersion: 1
  m_Faces:
  - m_Indexes: 000000000100000002000000010000000300000002000000
    m_SmoothingGroup: 0
    m_Uv:
      m_UseWorldSpace: 0
      m_FlipU: 0
      m_FlipV: 0
      m_SwapUV: 0
      m_Fill: 1
      m_Scale: {x: 1, y: 1}
      m_Offset: {x: 0, y: 0}
      m_Rotation: 0
      m_Anchor: 9
    m_Material: {fileID: 0}
    m_SubmeshIndex: 0
    m_ManualUV: 0
    elementGroup: -1
    m_TextureGroup: -1
  - m_Indexes: 040000000500000006000000050000000700000006000000
    m_SmoothingGroup: 0
    m_Uv:
      m_UseWorldSpace: 0
      m_FlipU: 0
      m_FlipV: 0
      m_SwapUV: 0
      m_Fill: 1
      m_Scale: {x: 1, y: 1}
      m_Offset: {x: 0, y: 0}
      m_Rotation: 0
      m_Anchor: 9
    m_Material: {fileID: 0}
    m_SubmeshIndex: 0
    m_ManualUV: 0
    elementGroup: -1
    m_TextureGroup: -1
  - m_Indexes: 08000000090000000a000000090000000b0000000a000000
    m_SmoothingGroup: 0
    m_Uv:
      m_UseWorldSpace: 0
      m_FlipU: 0
      m_FlipV: 0
      m_SwapUV: 0
      m_Fill: 1
      m_Scale: {x: 1, y: 1}
      m_Offset: {x: 0, y: 0}
      m_Rotation: 0
      m_Anchor: 9
    m_Material: {fileID: 0}
    m_SubmeshIndex: 0
    m_ManualUV: 0
    elementGroup: -1
    m_TextureGroup: -1
  - m_Indexes: 0c0000000d0000000e0000000d0000000f0000000e000000
    m_SmoothingGroup: 0
    m_Uv:
      m_UseWorldSpace: 0
      m_FlipU: 0
      m_FlipV: 0
      m_SwapUV: 0
      m_Fill: 1
      m_Scale: {x: 1, y: 1}
      m_Offset: {x: 0, y: 0}
      m_Rotation: 0
      m_Anchor: 9
    m_Material: {fileID: 0}
    m_SubmeshIndex: 0
    m_ManualUV: 0
    elementGroup: -1
    m_TextureGroup: -1
  - m_Indexes: 100000001100000012000000110000001300000012000000
    m_SmoothingGroup: 0
    m_Uv:
      m_UseWorldSpace: 0
      m_FlipU: 0
      m_FlipV: 0
      m_SwapUV: 0
      m_Fill: 1
      m_Scale: {x: 1, y: 1}
      m_Offset: {x: 0, y: 0}
      m_Rotation: 0
      m_Anchor: 9
    m_Material: {fileID: 0}
    m_SubmeshIndex: 0
    m_ManualUV: 0
    elementGroup: -1
    m_TextureGroup: -1
  - m_Indexes: 140000001500000016000000150000001700000016000000
    m_SmoothingGroup: 0
    m_Uv:
      m_UseWorldSpace: 0
      m_FlipU: 0
      m_FlipV: 0
      m_SwapUV: 0
      m_Fill: 1
      m_Scale: {x: 1, y: 1}
      m_Offset: {x: 0, y: 0}
      m_Rotation: 0
      m_Anchor: 9
    m_Material: {fileID: 0}
    m_SubmeshIndex: 0
    m_ManualUV: 0
    elementGroup: -1
    m_TextureGroup: -1
  - m_Indexes: 18000000190000001a000000190000001b0000001a000000
    m_SmoothingGroup: 0
    m_Uv:
      m_UseWorldSpace: 0
      m_FlipU: 0
      m_FlipV: 0
      m_SwapUV: 0
      m_Fill: 1
      m_Scale: {x: 1, y: 1}
      m_Offset: {x: 0, y: 0}
      m_Rotation: 0
      m_Anchor: 9
    m_Material: {fileID: 0}
    m_SubmeshIndex: 0
    m_ManualUV: 0
    elementGroup: -1
    m_TextureGroup: -1
  - m_Indexes: 1c0000001d0000001e0000001d0000001f0000001e000000
    m_SmoothingGroup: 0
    m_Uv:
      m_UseWorldSpace: 0
      m_FlipU: 0
      m_FlipV: 0
      m_SwapUV: 0
      m_Fill: 1
      m_Scale: {x: 1, y: 1}
      m_Offset: {x: 0, y: 0}
      m_Rotation: 0
      m_Anchor: 9
    m_Material: {fileID: 0}
    m_SubmeshIndex: 0
    m_ManualUV: 0
    elementGroup: -1
    m_TextureGroup: -1
  - m_Indexes: 200000002100000022000000210000002300000022000000
    m_SmoothingGroup: 0
    m_Uv:
      m_UseWorldSpace: 0
      m_FlipU: 0
      m_FlipV: 0
      m_SwapUV: 0
      m_Fill: 1
      m_Scale: {x: 1, y: 1}
      m_Offset: {x: 0, y: 0}
      m_Rotation: 0
      m_Anchor: 9
    m_Material: {fileID: 0}
    m_SubmeshIndex: 0
    m_ManualUV: 0
    elementGroup: -1
    m_TextureGroup: -1
  - m_Indexes: 240000002500000026000000250000002700000026000000
    m_SmoothingGroup: 0
    m_Uv:
      m_UseWorldSpace: 0
      m_FlipU: 0
      m_FlipV: 0
      m_SwapUV: 0
      m_Fill: 1
      m_Scale: {x: 1, y: 1}
      m_Offset: {x: 0, y: 0}
      m_Rotation: 0
      m_Anchor: 9
    m_Material: {fileID: 0}
    m_SubmeshIndex: 0
    m_ManualUV: 0
    elementGroup: -1
    m_TextureGroup: -1
  - m_Indexes: 28000000290000002a000000290000002b0000002a000000
    m_SmoothingGroup: 0
    m_Uv:
      m_UseWorldSpace: 0
      m_FlipU: 0
      m_FlipV: 0
      m_SwapUV: 0
      m_Fill: 1
      m_Scale: {x: 1, y: 1}
      m_Offset: {x: 0, y: 0}
      m_Rotation: 0
      m_Anchor: 9
    m_Material: {fileID: 0}
    m_SubmeshIndex: 0
    m_ManualUV: 0
    elementGroup: -1
    m_TextureGroup: -1
  - m_Indexes: 2c0000002d0000002e0000002d0000002f0000002e000000
    m_SmoothingGroup: 0
    m_Uv:
      m_UseWorldSpace: 0
      m_FlipU: 0
      m_FlipV: 0
      m_SwapUV: 0
      m_Fill: 1
      m_Scale: {x: 1, y: 1}
      m_Offset: {x: 0, y: 0}
      m_Rotation: 0
      m_Anchor: 9
    m_Material: {fileID: 0}
    m_SubmeshIndex: 0
    m_ManualUV: 0
    elementGroup: -1
    m_TextureGroup: -1
  - m_Indexes: 300000003100000032000000310000003300000032000000
    m_SmoothingGroup: 0
    m_Uv:
      m_UseWorldSpace: 0
      m_FlipU: 0
      m_FlipV: 0
      m_SwapUV: 0
      m_Fill: 1
      m_Scale: {x: 1, y: 1}
      m_Offset: {x: 0, y: 0}
      m_Rotation: 0
      m_Anchor: 9
    m_Material: {fileID: 0}
    m_SubmeshIndex: 0
    m_ManualUV: 0
    elementGroup: -1
    m_TextureGroup: -1
  - m_Indexes: 340000003500000036000000350000003700000036000000
    m_SmoothingGroup: 0
    m_Uv:
      m_UseWorldSpace: 0
      m_FlipU: 0
      m_FlipV: 0
      m_SwapUV: 0
      m_Fill: 1
      m_Scale: {x: 1, y: 1}
      m_Offset: {x: 0, y: 0}
      m_Rotation: 0
      m_Anchor: 9
    m_Material: {fileID: 0}
    m_SubmeshIndex: 0
    m_ManualUV: 0
    elementGroup: -1
    m_TextureGroup: -1
  - m_Indexes: 38000000390000003a000000390000003b0000003a000000
    m_SmoothingGroup: 0
    m_Uv:
      m_UseWorldSpace: 0
      m_FlipU: 0
      m_FlipV: 0
      m_SwapUV: 0
      m_Fill: 1
      m_Scale: {x: 1, y: 1}
      m_Offset: {x: 0, y: 0}
      m_Rotation: 0
      m_Anchor: 9
    m_Material: {fileID: 0}
    m_SubmeshIndex: 0
    m_ManualUV: 0
    elementGroup: -1
    m_TextureGroup: -1
  - m_Indexes: 3c0000003d0000003e0000003d0000003f0000003e000000
    m_SmoothingGroup: 0
    m_Uv:
      m_UseWorldSpace: 0
      m_FlipU: 0
      m_FlipV: 0
      m_SwapUV: 0
      m_Fill: 1
      m_Scale: {x: 1, y: 1}
      m_Offset: {x: 0, y: 0}
      m_Rotation: 0
      m_Anchor: 9
    m_Material: {fileID: 0}
    m_SubmeshIndex: 0
    m_ManualUV: 0
    elementGroup: -1
    m_TextureGroup: -1
  - m_Indexes: 400000004100000042000000410000004300000042000000
    m_SmoothingGroup: 0
    m_Uv:
      m_UseWorldSpace: 0
      m_FlipU: 0
      m_FlipV: 0
      m_SwapUV: 0
      m_Fill: 1
      m_Scale: {x: 1, y: 1}
      m_Offset: {x: 0, y: 0}
      m_Rotation: 0
      m_Anchor: 9
    m_Material: {fileID: 0}
    m_SubmeshIndex: 0
    m_ManualUV: 0
    elementGroup: -1
    m_TextureGroup: -1
  - m_Indexes: 440000004500000046000000450000004700000046000000
    m_SmoothingGroup: 0
    m_Uv:
      m_UseWorldSpace: 0
      m_FlipU: 0
      m_FlipV: 0
      m_SwapUV: 0
      m_Fill: 1
      m_Scale: {x: 1, y: 1}
      m_Offset: {x: 0, y: 0}
      m_Rotation: 0
      m_Anchor: 9
    m_Material: {fileID: 0}
    m_SubmeshIndex: 0
    m_ManualUV: 0
    elementGroup: -1
    m_TextureGroup: -1
  - m_Indexes: 48000000490000004a000000490000004b0000004a000000
    m_SmoothingGroup: 0
    m_Uv:
      m_UseWorldSpace: 0
      m_FlipU: 0
      m_FlipV: 0
      m_SwapUV: 0
      m_Fill: 1
      m_Scale: {x: 1, y: 1}
      m_Offset: {x: 0, y: 0}
      m_Rotation: 0
      m_Anchor: 9
    m_Material: {fileID: 0}
    m_SubmeshIndex: 0
    m_ManualUV: 0
    elementGroup: -1
    m_TextureGroup: -1
  - m_Indexes: 4c0000004d0000004e0000004d0000004f0000004e000000
    m_SmoothingGroup: 0
    m_Uv:
      m_UseWorldSpace: 0
      m_FlipU: 0
      m_FlipV: 0
      m_SwapUV: 0
      m_Fill: 1
      m_Scale: {x: 1, y: 1}
      m_Offset: {x: 0, y: 0}
      m_Rotation: 0
      m_Anchor: 9
    m_Material: {fileID: 0}
    m_SubmeshIndex: 0
    m_ManualUV: 0
    elementGroup: -1
    m_TextureGroup: -1
  - m_Indexes: 500000005100000052000000510000005300000052000000
    m_SmoothingGroup: 0
    m_Uv:
      m_UseWorldSpace: 0
      m_FlipU: 0
      m_FlipV: 0
      m_SwapUV: 0
      m_Fill: 1
      m_Scale: {x: 1, y: 1}
      m_Offset: {x: 0, y: 0}
      m_Rotation: 0
      m_Anchor: 9
    m_Material: {fileID: 0}
    m_SubmeshIndex: 0
    m_ManualUV: 0
    elementGroup: -1
    m_TextureGroup: -1
  - m_Indexes: 540000005500000056000000550000005700000056000000
    m_SmoothingGroup: 0
    m_Uv:
      m_UseWorldSpace: 0
      m_FlipU: 0
      m_FlipV: 0
      m_SwapUV: 0
      m_Fill: 1
      m_Scale: {x: 1, y: 1}
      m_Offset: {x: 0, y: 0}
      m_Rotation: 0
      m_Anchor: 9
    m_Material: {fileID: 0}
    m_SubmeshIndex: 0
    m_ManualUV: 0
    elementGroup: -1
    m_TextureGroup: -1
  m_SharedVertices:
  - m_Vertices: 000000000d00000016000000
  - m_Vertices: 010000000400000017000000
  - m_Vertices: 020000000f000000180000001d000000
  - m_Vertices: 100000001a0000001f000000
  - m_Vertices: 03000000060000001900000020000000
  - m_Vertices: 110000001b00000022000000
  - m_Vertices: 050000000800000015000000
  - m_Vertices: 070000000a00000021000000280000002d000000
  - m_Vertices: 240000003f0000004c00000055000000
  - m_Vertices: 3a0000004e00000057000000
  - m_Vertices: 2a0000002f0000003d000000480000004d000000
  - m_Vertices: 380000004a0000004f000000
  - m_Vertices: 13000000230000002c00000035000000
  - m_Vertices: 260000003e00000047000000
  - m_Vertices: 2e000000370000003c00000045000000
  - m_Vertices: 090000000c00000014000000
  - m_Vertices: 0b0000000e0000001c0000002900000030000000
  - m_Vertices: 25000000420000005100000054000000
  - m_Vertices: 3b0000005300000056000000
  - m_Vertices: 2b00000032000000400000004900000050000000
  - m_Vertices: 390000004b00000052000000
  - m_Vertices: 120000001e0000003100000034000000
  - m_Vertices: 270000004300000046000000
  - m_Vertices: 33000000360000004100000044000000
  m_SharedTextures: []
  m_Positions:
  - {x: -0.01, y: -0.4, z: 0.01}
  - {x: 0.07000017, y: -0.4, z: 0.010000229}
  - {x: -0.00999999, y: 0.099999905, z: 0.00999999}
  - {x: 0.07000017, y: 0.099999905, z: 0.010000229}
  - {x: 0.07000017, y: -0.4, z: 0.010000229}
  - {x: 0.07000017, y: -0.4, z: -0.029999733}
  - {x: 0.07000017, y: 0.099999905, z: 0.010000229}
  - {x: 0.07000017, y: 0.099999964, z: -0.029999733}
  - {x: 0.07000017, y: -0.4, z: -0.029999733}
  - {x: -0.00999999, y: -0.4, z: -0.029999733}
  - {x: 0.07000017, y: 0.099999964, z: -0.029999733}
  - {x: -0.00999999, y: 0.099999964, z: -0.029999733}
  - {x: -0.00999999, y: -0.4, z: -0.029999733}
  - {x: -0.01, y: -0.4, z: 0.01}
  - {x: -0.00999999, y: 0.099999964, z: -0.029999733}
  - {x: -0.00999999, y: 0.099999905, z: 0.00999999}
  - {x: -0.00999999, y: 0.5001, z: 0.00999999}
  - {x: 0.07000017, y: 0.5001, z: 0.010000229}
  - {x: -0.00999999, y: 0.5001, z: -0.029999912}
  - {x: 0.07000017, y: 0.5001, z: -0.03000015}
  - {x: -0.00999999, y: -0.4, z: -0.029999733}
  - {x: 0.07000017, y: -0.4, z: -0.029999733}
  - {x: -0.01, y: -0.4, z: 0.01}
  - {x: 0.07000017, y: -0.4, z: 0.010000229}
  - {x: -0.00999999, y: 0.099999905, z: 0.00999999}
  - {x: 0.07000017, y: 0.099999905, z: 0.010000229}
  - {x: -0.00999999, y: 0.5001, z: 0.00999999}
  - {x: 0.07000017, y: 0.5001, z: 0.010000229}
  - {x: -0.00999999, y: 0.099999964, z: -0.029999733}
  - {x: -0.00999999, y: 0.099999905, z: 0.00999999}
  - {x: -0.00999999, y: 0.5001, z: -0.029999912}
  - {x: -0.00999999, y: 0.5001, z: 0.00999999}
  - {x: 0.07000017, y: 0.099999905, z: 0.010000229}
  - {x: 0.07000017, y: 0.099999964, z: -0.029999733}
  - {x: 0.07000017, y: 0.5001, z: 0.010000229}
  - {x: 0.07000017, y: 0.5001, z: -0.03000015}
  - {x: 0.07000017, y: 0.099999905, z: -1.2302003}
  - {x: -0.00999999, y: 0.099999905, z: -1.2302002}
  - {x: 0.07000017, y: 0.5001, z: -1.2302003}
  - {x: -0.00999999, y: 0.5001, z: -1.2302002}
  - {x: 0.07000017, y: 0.099999964, z: -0.029999733}
  - {x: -0.00999999, y: 0.099999964, z: -0.029999733}
  - {x: 0.07000017, y: 0.099999964, z: -1.1999993}
  - {x: -0.00999999, y: 0.099999964, z: -1.1999993}
  - {x: 0.07000017, y: 0.5001, z: -0.03000015}
  - {x: 0.07000017, y: 0.099999964, z: -0.029999733}
  - {x: 0.07000017, y: 0.5001, z: -1.2001002}
  - {x: 0.07000017, y: 0.099999964, z: -1.1999993}
  - {x: -0.00999999, y: 0.099999964, z: -0.029999733}
  - {x: -0.00999999, y: 0.5001, z: -0.029999912}
  - {x: -0.00999999, y: 0.099999964, z: -1.1999993}
  - {x: -0.00999999, y: 0.5001, z: -1.2001002}
  - {x: -0.00999999, y: 0.5001, z: -0.029999912}
  - {x: 0.07000017, y: 0.5001, z: -0.03000015}
  - {x: -0.00999999, y: 0.5001, z: -1.2001002}
  - {x: 0.07000017, y: 0.5001, z: -1.2001002}
  - {x: 0.07000017, y: -0.40010005, z: -1.1999993}
  - {x: -0.00999999, y: -0.40010005, z: -1.1999993}
  - {x: 0.07000017, y: -0.40010005, z: -1.2302003}
  - {x: -0.00999999, y: -0.40010005, z: -1.2302002}
  - {x: 0.07000017, y: 0.5001, z: -1.2001002}
  - {x: 0.07000017, y: 0.099999964, z: -1.1999993}
  - {x: 0.07000017, y: 0.5001, z: -1.2302003}
  - {x: 0.07000017, y: 0.099999905, z: -1.2302003}
  - {x: -0.00999999, y: 0.099999964, z: -1.1999993}
  - {x: -0.00999999, y: 0.5001, z: -1.2001002}
  - {x: -0.00999999, y: 0.099999905, z: -1.2302002}
  - {x: -0.00999999, y: 0.5001, z: -1.2302002}
  - {x: -0.00999999, y: 0.5001, z: -1.2001002}
  - {x: 0.07000017, y: 0.5001, z: -1.2001002}
  - {x: -0.00999999, y: 0.5001, z: -1.2302002}
  - {x: 0.07000017, y: 0.5001, z: -1.2302003}
  - {x: 0.07000017, y: 0.099999964, z: -1.1999993}
  - {x: -0.00999999, y: 0.099999964, z: -1.1999993}
  - {x: 0.07000017, y: -0.40010005, z: -1.1999993}
  - {x: -0.00999999, y: -0.40010005, z: -1.1999993}
  - {x: 0.07000017, y: 0.099999905, z: -1.2302003}
  - {x: 0.07000017, y: 0.099999964, z: -1.1999993}
  - {x: 0.07000017, y: -0.40010005, z: -1.2302003}
  - {x: 0.07000017, y: -0.40010005, z: -1.1999993}
  - {x: -0.00999999, y: 0.099999964, z: -1.1999993}
  - {x: -0.00999999, y: 0.099999905, z: -1.2302002}
  - {x: -0.00999999, y: -0.40010005, z: -1.1999993}
  - {x: -0.00999999, y: -0.40010005, z: -1.2302002}
  - {x: -0.00999999, y: 0.099999905, z: -1.2302002}
  - {x: 0.07000017, y: 0.099999905, z: -1.2302003}
  - {x: -0.00999999, y: -0.40010005, z: -1.2302002}
  - {x: 0.07000017, y: -0.40010005, z: -1.2302003}
  m_Textures0:
  - {x: 0.009999971, y: -0.4}
  - {x: -0.0700002, y: -0.4}
  - {x: 0.009999962, y: 0.099999905}
  - {x: -0.0700002, y: 0.099999905}
  - {x: 0.010000229, y: -0.4}
  - {x: -0.029999733, y: -0.4}
  - {x: 0.010000229, y: 0.099999905}
  - {x: -0.029999733, y: 0.099999964}
  - {x: 0.07000017, y: -0.4}
  - {x: -0.00999999, y: -0.4}
  - {x: 0.07000017, y: 0.099999964}
  - {x: -0.00999999, y: 0.099999964}
  - {x: 0.029999731, y: -0.4}
  - {x: -0.010000003, y: -0.4}
  - {x: 0.029999731, y: 0.099999964}
  - {x: -0.009999993, y: 0.099999905}
  - {x: -0.00999999, y: 0.00999999}
  - {x: 0.07000017, y: 0.010000229}
  - {x: -0.00999999, y: -0.029999912}
  - {x: 0.07000017, y: -0.03000015}
  - {x: 0.00999999, y: -0.029999733}
  - {x: -0.07000017, y: -0.029999733}
  - {x: 0.01, y: 0.01}
  - {x: -0.07000017, y: 0.010000229}
  - {x: 0.009999961, y: 0.099999905}
  - {x: -0.0700002, y: 0.099999905}
  - {x: 0.009999961, y: 0.5001}
  - {x: -0.0700002, y: 0.5001}
  - {x: 0.029999733, y: 0.099999964}
  - {x: -0.00999999, y: 0.099999905}
  - {x: 0.029999912, y: 0.5001}
  - {x: -0.00999999, y: 0.5001}
  - {x: 0.010000229, y: 0.099999905}
  - {x: -0.029999733, y: 0.099999964}
  - {x: 0.010000229, y: 0.5001}
  - {x: -0.03000015, y: 0.5001}
  - {x: 0.070002005, y: 0.099999905}
  - {x: -0.009998158, y: 0.099999905}
  - {x: 0.070002005, y: 0.5001}
  - {x: -0.009998158, y: 0.5001}
  - {x: -0.07000017, y: -0.029999733}
  - {x: 0.00999999, y: -0.029999733}
  - {x: -0.07000017, y: -1.1999993}
  - {x: 0.00999999, y: -1.1999993}
  - {x: -0.03000015, y: 0.5001}
  - {x: -0.029999733, y: 0.099999964}
  - {x: -1.2001002, y: 0.5001}
  - {x: -1.1999993, y: 0.099999964}
  - {x: 0.029999733, y: 0.099999964}
  - {x: 0.029999912, y: 0.5001}
  - {x: 1.1999993, y: 0.099999964}
  - {x: 1.2001002, y: 0.5001}
  - {x: -0.00999999, y: -0.029999912}
  - {x: 0.07000017, y: -0.03000015}
  - {x: -0.00999999, y: -1.2001002}
  - {x: 0.07000017, y: -1.2001002}
  - {x: -0.07000017, y: -1.1999993}
  - {x: 0.00999999, y: -1.1999993}
  - {x: -0.07000017, y: -1.2302003}
  - {x: 0.00999999, y: -1.2302002}
  - {x: -1.2001002, y: 0.5001}
  - {x: -1.1999993, y: 0.099999964}
  - {x: -1.2302003, y: 0.5001}
  - {x: -1.2302003, y: 0.099999905}
  - {x: 1.1999993, y: 0.099999964}
  - {x: 1.2001002, y: 0.5001}
  - {x: 1.2302002, y: 0.099999905}
  - {x: 1.2302002, y: 0.5001}
  - {x: -0.00999999, y: -1.2001002}
  - {x: 0.07000017, y: -1.2001002}
  - {x: -0.00999999, y: -1.2302002}
  - {x: 0.07000017, y: -1.2302003}
  - {x: -0.07000017, y: 0.099999964}
  - {x: 0.00999999, y: 0.099999964}
  - {x: -0.07000017, y: -0.40010005}
  - {x: 0.00999999, y: -0.40010005}
  - {x: -1.2302003, y: 0.099999905}
  - {x: -1.1999993, y: 0.099999964}
  - {x: -1.2302003, y: -0.40010005}
  - {x: -1.1999993, y: -0.40010005}
  - {x: 1.1999993, y: 0.099999964}
  - {x: 1.2302002, y: 0.099999905}
  - {x: 1.1999993, y: -0.40010005}
  - {x: 1.2302002, y: -0.40010005}
  - {x: -0.009998158, y: 0.099999905}
  - {x: 0.070002005, y: 0.099999905}
  - {x: -0.009998158, y: -0.40010005}
  - {x: 0.070002005, y: -0.40010005}
  m_Textures2: []
  m_Textures3: []
  m_Tangents:
  - {x: -1, y: 4.2351777e-21, z: -0.0000028638108, w: -1}
  - {x: -1, y: 0, z: -0.0000029220187, w: -1}
  - {x: -1, y: 0, z: -0.0000029220187, w: -1}
  - {x: -1, y: 0, z: -0.0000029802263, w: -1}
  - {x: 0, y: 0, z: 1, w: -1}
  - {x: 0, y: 0, z: 1, w: -1}
  - {x: 0, y: 0, z: 1, w: -1}
  - {x: 0, y: 0, z: 1, w: -1}
  - {x: 1, y: 0, z: 0, w: -1}
  - {x: 1, y: 0, z: 0, w: -1}
  - {x: 1, y: 0, z: 0, w: -1}
  - {x: 1, y: 0, z: 0, w: -1}
  - {x: 0.0000002328322, y: 0, z: -1, w: -1}
  - {x: 0.00000011641609, y: 6.617446e-23, z: -1, w: -1}
  - {x: 0.00000011641609, y: 6.617446e-23, z: -1, w: -1}
  - {x: -2.7755772e-14, y: -3.1554442e-29, z: -1, w: -1}
  - {x: 1, y: 0, z: 0, w: -1}
  - {x: 1, y: 0, z: 0, w: -1}
  - {x: 1, y: 0, z: 0, w: -1}
  - {x: 1, y: 0, z: 0, w: -1}
  - {x: -1, y: 0, z: 0, w: -1}
  - {x: -1, y: 0, z: 0, w: -1}
  - {x: -1, y: 0, z: 0, w: -1}
  - {x: -1, y: 0, z: 0, w: -1}
  - {x: -1, y: 0, z: -0.000002980226, w: -1}
  - {x: -1, y: 0, z: -0.000002980226, w: -1}
  - {x: -1, y: 0, z: -0.000002980226, w: -1}
  - {x: -1, y: 0, z: -0.000002980226, w: -1}
  - {x: 0, y: 0, z: -1, w: -1}
  - {x: 0, y: 0, z: -1, w: -1}
  - {x: 0, y: 0, z: -1, w: -1}
  - {x: 0, y: 0, z: -1, w: -1}
  - {x: 0, y: 0, z: 1, w: -1}
  - {x: 0, y: 0, z: 1, w: -1}
  - {x: 0, y: 0, z: 1, w: -1}
  - {x: 0, y: 0, z: 1, w: -1}
  - {x: 1, y: 0, z: -0.000001490113, w: -1}
  - {x: 1, y: 0, z: -0.000001490113, w: -1}
  - {x: 1, y: 0, z: -0.000001490113, w: -1}
  - {x: 1, y: 0, z: -0.000001490113, w: -1}
  - {x: -1, y: 0, z: 0, w: -1}
  - {x: -1, y: 0, z: 0, w: -1}
  - {x: -1, y: 0, z: 0, w: -1}
  - {x: -1, y: 0, z: 0, w: -1}
  - {x: 0, y: 0, z: 1, w: -1}
  - {x: 0, y: 0, z: 1, w: -1}
  - {x: 0, y: 0, z: 1, w: -1}
  - {x: 0, y: 0, z: 1, w: -1}
  - {x: 0, y: 0, z: -1, w: -1}
  - {x: 0, y: 0, z: -1, w: -1}
  - {x: 0, y: 0, z: -1, w: -1}
  - {x: 0, y: 0, z: -1, w: -1}
  - {x: 1, y: 0, z: 0, w: -1}
  - {x: 1, y: 0, z: 0, w: -1}
  - {x: 1, y: 0, z: 0, w: -1}
  - {x: 1, y: 0, z: 0, w: -1}
  - {x: -1, y: 0, z: 0, w: -1}
  - {x: -1, y: 0, z: 0, w: -1}
  - {x: -1, y: 0, z: 0, w: -1}
  - {x: -1, y: 0, z: 0, w: -1}
  - {x: 0, y: 0, z: 1, w: -1}
  - {x: 0, y: 0, z: 1, w: -1}
  - {x: 0, y: 0, z: 1, w: -1}
  - {x: 0, y: 0, z: 1, w: -1}
  - {x: 0, y: 0, z: -1, w: -1}
  - {x: 0, y: 0, z: -1, w: -1}
  - {x: 0, y: 0, z: -1, w: -1}
  - {x: 0, y: 0, z: -1, w: -1}
  - {x: 1, y: 0, z: 0, w: -1}
  - {x: 1, y: 0, z: 0, w: -1}
  - {x: 1, y: 0, z: 0, w: -1}
  - {x: 1, y: 0, z: 0, w: -1}
  - {x: -1, y: 0, z: 0, w: -1}
  - {x: -1, y: 0, z: 0, w: -1}
  - {x: -1, y: 0, z: 0, w: -1}
  - {x: -1, y: 0, z: 0, w: -1}
  - {x: 0, y: 0, z: 1, w: -1}
  - {x: 0, y: 0, z: 1, w: -1}
  - {x: 0, y: 0, z: 1, w: -1}
  - {x: 0, y: 0, z: 1, w: -1}
  - {x: 0, y: 0, z: -1, w: -1}
  - {x: 0, y: 0, z: -1, w: -1}
  - {x: 0, y: 0, z: -1, w: -1}
  - {x: 0, y: 0, z: -1, w: -1}
  - {x: 1, y: 0, z: -0.000001490113, w: -1}
  - {x: 1, y: 0, z: -0.000001490113, w: -1}
  - {x: 1, y: 0, z: -0.000001490113, w: -1}
  - {x: 1, y: 0, z: -0.000001490113, w: -1}
  m_Colors: []
  m_UnwrapParameters:
    m_HardAngle: 88
    m_PackMargin: 20
    m_AngleError: 8
    m_AreaError: 15
  m_PreserveMeshAssetOnDestroy: 0
  assetGuid: 
  m_Mesh: {fileID: 0}
  m_IsSelectable: 1
  m_SelectedFaces: 
  m_SelectedEdges: []
  m_SelectedVertices: 
--- !u!23 &2195769630073972296
MeshRenderer:
  m_ObjectHideFlags: 0
  m_CorrespondingSourceObject: {fileID: 0}
  m_PrefabInstance: {fileID: 0}
  m_PrefabAsset: {fileID: 0}
  m_GameObject: {fileID: 8410538930247542584}
  m_Enabled: 1
  m_CastShadows: 1
  m_ReceiveShadows: 1
  m_DynamicOccludee: 1
  m_MotionVectors: 1
  m_LightProbeUsage: 1
  m_ReflectionProbeUsage: 1
  m_RayTracingMode: 2
  m_RenderingLayerMask: 1
  m_RendererPriority: 0
  m_Materials:
  - {fileID: 2100000, guid: aa5a31be935b7034e9d006ce832702e9, type: 2}
  m_StaticBatchInfo:
    firstSubMesh: 0
    subMeshCount: 0
  m_StaticBatchRoot: {fileID: 0}
  m_ProbeAnchor: {fileID: 0}
  m_LightProbeVolumeOverride: {fileID: 0}
  m_ScaleInLightmap: 1
  m_ReceiveGI: 1
  m_PreserveUVs: 0
  m_IgnoreNormalsForChartDetection: 0
  m_ImportantGI: 0
  m_StitchLightmapSeams: 1
  m_SelectedEditorRenderState: 2
  m_MinimumChartSize: 4
  m_AutoUVMaxDistance: 0.5
  m_AutoUVMaxAngle: 89
  m_LightmapParameters: {fileID: 0}
  m_SortingLayerID: 0
  m_SortingLayer: 0
  m_SortingOrder: 0
--- !u!33 &6150616210929827372
MeshFilter:
  m_ObjectHideFlags: 0
  m_CorrespondingSourceObject: {fileID: 0}
  m_PrefabInstance: {fileID: 0}
  m_PrefabAsset: {fileID: 0}
  m_GameObject: {fileID: 8410538930247542584}
  m_Mesh: {fileID: 0}
--- !u!64 &5243866080631161124
MeshCollider:
  m_ObjectHideFlags: 0
  m_CorrespondingSourceObject: {fileID: 0}
  m_PrefabInstance: {fileID: 0}
  m_PrefabAsset: {fileID: 0}
  m_GameObject: {fileID: 8410538930247542584}
  m_Material: {fileID: 0}
  m_IsTrigger: 0
  m_Enabled: 1
  serializedVersion: 4
  m_Convex: 0
  m_CookingOptions: 30
  m_Mesh: {fileID: 0}
